Practice with dplyr and ggplot2
…
Some more dplyr practice

I want to know the average democratic vote for N vs S, by year.

First, find the average democratic votes for the north and the south,
every year. You’ll need to do a double group_by()
here. You do it in one call of the function.

votedata %>%
  group_by(south, year) %>%
  summarize(avg_dem_vote = mean(demVote), .groups = 'drop')

## # A tibble: 44 × 3
##    south  year avg_dem_vote
##    <lgl> <int>        <dbl>
##  1 FALSE  1932         56.7
##  2 FALSE  1936         59.2
##  3 FALSE  1940         52.8
##  4 FALSE  1944         51.1
##  5 FALSE  1948         50.2
##  6 FALSE  1952         40.9
##  7 FALSE  1956         40.1
##  8 FALSE  1960         48.0
##  9 FALSE  1964         63.0
## 10 FALSE  1968         44.7
## # ℹ 34 more rows
…
